big_mart
…
Model

Creating the train/test split again

train <- data[1:8523,]
test <- data[8524:nrow(data),]

Baseline model

mean_sales <- mean(train$Item_Outlet_Sales)

base1 <- tibble(test$Item_Identifier, test$Outlet_Identifier, 'Item_Outlet_Sales' = mean_sales)
base1

## # A tibble: 5,681 x 3
##    `test$Item_Identifier` `test$Outlet_Identifier` Item_Outlet_Sales
##    <fct>                  <fct>                                <dbl>
##  1 FDW58                  OUT049                               2181.
##  2 FDW14                  OUT017                               2181.
##  3 NCN55                  OUT010                               2181.
##  4 FDQ58                  OUT017                               2181.
##  5 FDY38                  OUT027                               2181.
##  6 FDH56                  OUT046                               2181.
##  7 FDL48                  OUT018                               2181.
##  8 FDC48                  OUT027                               2181.
##  9 FDN33                  OUT045                               2181.
## 10 FDA36                  OUT017                               2181.
## # ... with 5,671 more rows
…
